[
	{
		"id": "amabile1976",
		"type": "article-journal",
		"abstract": "Studied the effects of externally imposed deadlines on individuals' task performance and their subsequent interest in the task. In 1 deadline condition, 20 male undergraduates were given an explicit time limit for solving a series of initially interesting word games. In 2 conditions, the importance of finishing was stated explicitly; in the 2nd condition, the deadline was left implicit. In 2 control conditions, 20 other Ss worked on the puzzles without any explicit time limit. In one condition, Ss were asked to work at their own pace; in the other, they were asked to solve the puzzles as fast as possible. Virtually all Ss finished in the allotted time. Unobtrusive measures of subsequent interest indicated that in the absence of external constraints, Ss in the deadline condition were less interested in the game than Ss in the nondeadline conditions. Implications for the overjustification hypothesis are discussed. (PsycINFO Database Record (c) 2016 APA, all rights reserved)",
		"container-title": "Journal of Personality and Social Psychology",
		"DOI": "10.1037/0022-3514.34.1.92",
		"ISSN": "1939-1315(Electronic),0022-3514(Print)",
		"issue": "1",
		"note": "publisher-place: US\npublisher: American Psychological Association",
		"page": "92-98",
		"source": "APA PsycNET",
		"title": "Effects of externally imposed deadlines on subsequent intrinsic motivation",
		"volume": "34",
		"author": [
			{
				"family": "Amabile",
				"given": "Teresa M."
			},
			{
				"family": "DeJong",
				"given": "William"
			},
			{
				"family": "Lepper",
				"given": "Mark R."
			}
		],
		"issued": {
			"date-parts": [
				[
					"1976"
				]
			]
		}
	},
	{
		"id": "anderson1989",
		"type": "article-journal",
		"abstract": "Although previous research has suggested that, in general, negative feedback concerning performance reduces intrinsically motivated activity, results of the present study indicate that mild negative feedback can increase intrinsic motivation when associated with environmental cues signalling self-determination (Deci & Ryan, 1985). Subjects working on brain-teasers who were given mild negative feedback—but who had a choice of problems to solve, no expectation of evaluation, and who received scores privately—retained as much or more intrinsic motivation than subjects given positive feedback under the same conditions. Subjects in controlling contexts showed less intrinsic motivation. The measure of intrinsic motivation used in this study was a sum of standardized mood and target activity, following recent criticisms of the use of strictly behavioral measures to operationalize intrinsic motivation (Ryan & Deci, 1986).",
		"container-title": "Journal of Applied Social Psychology",
		"DOI": "10.1111/j.1559-1816.1989.tb00067.x",
		"ISSN": "1559-1816",
		"issue": "6",
		"language": "en",
		"note": "_eprint: https://onlinelibrary.wiley.com/doi/pdf/10.1111/j.1559-1816.1989.tb00067.x",
		"page": "449-467",
		"source": "Wiley Online Library",
		"title": "Is Bad News Always Bad?: Cue and Feedback Effects on Intrinsic Motivation",
		"title-short": "Is Bad News Always Bad?",
		"URL": "https://onlinelibrary.wiley.com/doi/abs/10.1111/j.1559-1816.1989.tb00067.x",
		"volume": "19",
		"author": [
			{
				"family": "Anderson",
				"given": "Susan"
			},
			{
				"family": "Rodin",
				"given": "Judith"
			}
		],
		"accessed": {
			"date-parts": [
				[
					"2021",
					7,
					8
				]
			]
		},
		"issued": {
			"date-parts": [
				[
					"1989"
				]
			]
		}
	},
	{
		"id": "anderson1976",
		"type": "article-journal",
		"abstract": "A 2-phase field experiment was conducted with 72 lower-socioeconomic preschool children to test the overjustification effect, which proposes that intrinsic motivation will decrease with the addition of contingent, external rewards which alone are sufficient to justify performance. Ss showing high intrinsic motivation on the target activity were exposed to 1 of 6 conditions. In the 3 experimental conditions the child received either money, an award, or positive verbal reinforcement for his/her performance on the target activity. Comparison groups controlled for time or history, the presence of the E, and the personal attention given the child by the E. Money and awards, expected to be perceived as sufficient to justify performance, reduced subsequent intrinsic motivation during a free-play period. Positive verbal reinforcement, predicted to be insufficient to justify performance, resulted in increased intrinsic motivation. Intrinsic motivation in control groups for time and presence of the E did not change. Unexpectedly, a large decline in intrinsic motivation occurred in a control group where the child was ignored. This effect is discussed in terms of attribution and learning theory. (PsycINFO Database Record (c) 2016 APA, all rights reserved)",
		"container-title": "Journal of Personality and Social Psychology",
		"DOI": "10.1037/0022-3514.34.5.915",
		"ISSN": "1939-1315(Electronic),0022-3514(Print)",
		"issue": "5",
		"note": "publisher-place: US\npublisher: American Psychological Association",
		"page": "915-922",
		"source": "APA PsycNET",
		"title": "The undermining and enhancing of intrinsic motivation in preschool children",
		"volume": "34",
		"author": [
			{
				"family": "Anderson",
				"given": "Rosemarie"
			},
			{
				"family": "Manoogian",
				"given": "Sam T."
			},
			{
				"family": "Reznick",
				"given": "J. Steven"
			}
		],
		"issued": {
			"date-parts": [
				[
					"1976"
				]
			]
		}
	},
	{
		"id": "assor2004",
		"type": "article-journal",
		"abstract": "Parents' use of conditional regard as a socializing practice was hypothesized to predict their children's introjected internalization (indexed by a sense of internal compulsion), resentment toward parents, and ill-being. In Study 1, involving three generations, mothers' reports of their parents' having used conditional regard to promote academic achievement predicted (a) the mothers' poor well-being and controlling parenting attitudes, and (b) their college-aged daughters' viewing them as having used conditional regard, thus showing both negative affective consequences from and intergenerational transmission of conditional regard. Study 2 expanded on the first by using four domains, including both genders, and examining mediating processes. College students' perceptions of their mothers' and fathers' having used conditional regard in four domains (emotion control, prosocial, academic, sport) were found to relate to introjected internalization, behavioral enactment, fluctuations in self-esteem, perceived parental disapproval, and resentment of parents. Introjection mediated the link from conditional regard to behavioral enactment. The results suggest that use of conditional regard as a socializing practice can promote enactment of the desired behaviors but does so with significant affective costs.",
		"container-title": "Journal of Personality",
		"DOI": "10.1111/j.0022-3506.2004.00256.x",
		"ISSN": "0022-3506",
		"issue": "1",
		"journalAbbreviation": "J Pers",
		"language": "eng",
		"note": "PMID: 14686884",
		"page": "47-88",
		"source": "PubMed",
		"title": "The emotional costs of parents' conditional regard: a self-determination theory analysis",
		"title-short": "The emotional costs of parents' conditional regard",
		"volume": "72",
		"author": [
			{
				"family": "Assor",
				"given": "Avi"
			},
			{
				"family": "Roth",
				"given": "Guy"
			},
			{
				"family": "Deci",
				"given": "Edward L."
			}
		],
		"issued": {
			"date-parts": [
				[
					"2004",
					2
				]
			]
		}
	},
	{
		"id": "baumeister1985",
		"type": "article-journal",
		"abstract": "A model is proposed in which the goal of people with high self-esteem is to cultivate personal strengths in order to excel, whereas the goal of people with low self-esteem is to remedy personal deficiencies in order to become adequate In two experiments, subjects received initial outcome feedback of either success, humiliating failure (internal attribution), or failure that allowed face-saving (external attribution) Experiment 1 then measured subjects intrinsic motivation to pursue the task during free-choice time Subjects with high self-esteem had the highest intrinsic motivation after success Subjects with low self-esteem had the highest intrinsic motivation after the humiliating failure Experiment 2 required a second performance on a similar task Performance results were consistent with the intrinsic motivation results of Experiment 1, with one exception High self-esteem subjects were sensitive to the different failure treatments, performing well after humiliation but poorly after face-saving Subjects with low self-esteem performed the same in both failure conditions The relation of the present model and results to previous work is discussed",
		"container-title": "Journal of Personality",
		"DOI": "10.1111/j.1467-6494.1985.tb00376.x",
		"ISSN": "1467-6494",
		"issue": "3",
		"language": "en",
		"note": "_eprint: https://onlinelibrary.wiley.com/doi/pdf/10.1111/j.1467-6494.1985.tb00376.x",
		"page": "450-467",
		"source": "Wiley Online Library",
		"title": "Self-esteem and responses to success and failure: Subsequent performance and intrinsic motivation",
		"title-short": "Self-esteem and responses to success and failure",
		"URL": "https://onlinelibrary.wiley.com/doi/abs/10.1111/j.1467-6494.1985.tb00376.x",
		"volume": "53",
		"author": [
			{
				"family": "Baumeister",
				"given": "Roy F."
			},
			{
				"family": "Tice",
				"given": "Dianne M."
			}
		],
		"accessed": {
			"date-parts": [
				[
					"2021",
					7,
					8
				]
			]
		},
		"issued": {
			"date-parts": [
				[
					"1985"
				]
			]
		}
	},
	{
		"id": "chen2015",
		"type": "article-journal",
		"abstract": "The present study investigated whether satisfaction and frustration of the psychological needs for autonomy, relatedness, and competence, as identified within Basic Psychological Need Theory (BPNT; Deci and Ryan, Psychol Inquiry 11:227–268, 2000; Ryan and Deci, Psychol Inquiry 11:319–338, 2000), contributes to participants’ well-being and ill-being, regardless of their cultural background and interpersonal differences in need strength, as indexed by either need valuation (i.e., the stated importance of the need to the person) or need desire (i.e., the desire to get a need met). In Study 1, involving late adolescents from Belgium and China (totalN = 685; Mean age = 17 years), autonomy and competence satisfaction had unique associations with well-being and individual differences in need valuation did not moderate these associations. Study 2 involved participants from four culturally diverse nations (Belgium, China, USA, and Peru; total N = 1,051; Mean age = 20 years). Results provided evidence for the measurement equivalence of an adapted scale tapping into both need satisfaction and need frustration. Satisfaction of each of the three needs was found to contribute uniquely to the prediction of well-being, whereas frustration of each of the three needs contributed uniquely to the prediction of ill-being. Consistent with Study 1, the effects of need satisfaction and need frustration were found to be equivalent across the four countries and were not moderated by individual differences in the desire for need satisfaction. These findings underscore BPNT’s universality claim, which states that the satisfaction of basic needs for autonomy, relatedness, and competence represent essential nutrients for optimal functioning across cultures and across individual differences in need strength.",
		"DOI": "10.1007/s11031-014-9450-1",
		"language": "en",
		"source": "acuresearchbank.acu.edu.au",
		"title": "Basic psychological need satisfaction, need frustration, and need strength across four cultures",
		"URL": "https://acuresearchbank.acu.edu.au/item/87q62/basic-psychological-need-satisfaction-need-frustration-and-need-strength-across-four-cultures",
		"author": [
			{
				"family": "Chen",
				"given": "Beiwen"
			},
			{
				"family": "Vansteenkiste",
				"given": "Maarten"
			},
			{
				"family": "Beyers",
				"given": "Wim"
			},
			{
				"family": "Boone",
				"given": "Liesbet"
			},
			{
				"family": "Deci",
				"given": "Edward"
			},
			{
				"family": "Van der Kaap-Deeder",
				"given": "Jolene"
			},
			{
				"family": "Duriez",
				"given": "Bart"
			},
			{
				"family": "Lens",
				"given": "Willy"
			},
			{
				"family": "Matos",
				"given": "Lennia"
			},
			{
				"family": "Mouratidis",
				"given": "Athanasios"
			},
			{
				"family": "Ryan",
				"given": "Richard"
			},
			{
				"family": "Sheldon",
				"given": "Kennon"
			},
			{
				"family": "Soenens",
				"given": "Bart"
			},
			{
				"family": "Van Petegem",
				"given": "Stijn"
			},
			{
				"family": "Verstuyf",
				"given": "Joke"
			}
		],
		"accessed": {
			"date-parts": [
				[
					"2021",
					7,
					8
				]
			]
		},
		"issued": {
			"date-parts": [
				[
					"2015"
				]
			]
		}
	},
	{
		"id": "csikszentmihalyi2014",
		"type": "book",
		"abstract": "The third volume of the collected works of Mihaly Csikszentmihalyi covers his work on the application of flow in areas that go beyond the field of leisure where the concept was first applied. Based on his personal experience with schooling and learning, as well as that of many others and contrary to what Cicero claimed, Csikszentmihalyi arrived at the conclusion that instead of taking pride in making the roots of knowledge as bitter as possible, we should try to make them sweeter. Just as flow became a popular and useful concept in voluntary activities, it could likewise be applied in education with the end result of young people being more likely to continue learning not just because they have to but because they want to.This volume brings together a number of articles in which Csikszentmihalyi develops ideas about how to make education and more generally the process of learning to live a good life, more enjoyable. Since theory is the mother of good practice, the first eleven chapters are devoted to theoretical reflections. Some are general and explore what it means to be a human being, what it means to be a person, when we look at life from the perspective of flow. Others are more narrowly focused on such topics as consumption, education, teaching and learning. They help laypeople reflect how they can arrange their lives in such a way as to leave a small ecological footprint while getting the most enjoyment. The second section of the volume contains a dozen empirical articles on similar topics. They deal with the development of identity and self-worth; with the formation of goals and motivation; with loneliness and family life.",
		"ISBN": "978-94-017-9093-2",
		"language": "en",
		"note": "DOI: 10.1007/978-94-017-9094-9",
		"publisher": "Springer Netherlands",
		"source": "www.springer.com",
		"title": "Applications of Flow in Human Development and Education",
		"title-short": "Applications of Flow in Human Development and Education",
		"URL": "https://www.springer.com/gp/book/9789401790932",
		"author": [
			{
				"family": "Csikszentmihalyi",
				"given": "Mihaly"
			}
		],
		"accessed": {
			"date-parts": [
				[
					"2021",
					7,
					8
				]
			]
		},
		"issued": {
			"date-parts": [
				[
					"2014"
				]
			]
		}
	},
	{
		"id": "csikszentmihalyi2014a",
		"type": "book",
		"abstract": "This first volume of the Collected Works of Mihaly Csikszentmihalyi represents his work on Art and Creativity. Starting with his seminal 1964 study on creativity up to his 2010 publication in Newsweek, the volume spans over four decades of research and writing and clearly shows Csikszentmihalyi’s own development as an academic, psychologist, researcher and person. Unconventional and unorthodox in his approach, Csikszentmihalyi chose the topic of creativity as a field of study believing it would help him be a better psychologist and advance his understanding of how to live a better life.The chapters in this volume trace the history of the study of creativity back to the days of Guilford and research on IQ and Jacob Getzels’ work on creativity and intelligence. Firmly grounded in that history, yet extending it in new directions, Mihaly Csikszentmihalyi started his life-long study on artistic creativity. His first extensive study at the School of the Art Institute of Chicago enabled him to observe, test and interview fine art students drawing in a studio. The study formed the very basis of all his work on the subject and has resulted in several articles, represented in this volume, on such creativity-related concepts as problem solving versus problem finding, the personality of the artist, the influence of the social context, creativity as a social construction, developmental issues and flow. The main contribution to the topic of creativity and also the main concept explored in this volume, is the Systems Model of Creativity. Seven chapters in this volume discuss the development of this conceptual model and theory.",
		"ISBN": "978-94-017-9084-0",
		"language": "en",
		"note": "DOI: 10.1007/978-94-017-9085-7",
		"publisher": "Springer Netherlands",
		"source": "www.springer.com",
		"title": "The Systems Model of Creativity",
		"title-short": "The Systems Model of Creativity",
		"URL": "https://www.springer.com/gp/book/9789401790840",
		"author": [
			{
				"family": "Csikszentmihalyi",
				"given": "Mihaly"
			}
		],
		"accessed": {
			"date-parts": [
				[
					"2021",
					7,
					8
				]
			]
		},
		"issued": {
			"date-parts": [
				[
					"2014"
				]
			]
		}
	},
	{
		"id": "darley1968",
		"type": "article-journal",
		"container-title": "Journal of Personality and Social Psychology",
		"DOI": "10.1037/h0025589",
		"ISSN": "0022-3514",
		"issue": "4",
		"journalAbbreviation": "J Pers Soc Psychol",
		"language": "eng",
		"note": "PMID: 5645600",
		"page": "377-383",
		"source": "PubMed",
		"title": "Bystander intervention in emergencies: diffusion of responsibility",
		"title-short": "Bystander intervention in emergencies",
		"volume": "8",
		"author": [
			{
				"family": "Darley",
				"given": "J. M."
			},
			{
				"family": "Latané",
				"given": "B."
			}
		],
		"issued": {
			"date-parts": [
				[
					"1968",
					4
				]
			]
		}
	},
	{
		"id": "deci1975",
		"type": "article-journal",
		"abstract": "In criticizing the authors' work about the effects of extrinsic rewards on intrinsic motivation, B. J. Calder and B. M. Staw (see PA, Vol 53:Issue 5) point out that additional data are necessary to substantiate several assertions. Those data are presented here, and they are seen to be consistent with earlier findings. Other criticisms are considered within the context of cognitive evaluation theory, and areas are pointed out where additional research is necessary. (PsycINFO Database Record (c) 2016 APA, all rights reserved)",
		"container-title": "Journal of Personality and Social Psychology",
		"DOI": "10.1037/h0076168",
		"ISSN": "1939-1315(Electronic),0022-3514(Print)",
		"issue": "1",
		"note": "publisher-place: US\npublisher: American Psychological Association",
		"page": "81-85",
		"source": "APA PsycNET",
		"title": "Cognitive evaluation theory and some comments on the Calder and Staw critique",
		"volume": "31",
		"author": [
			{
				"family": "Deci",
				"given": "Edward L."
			},
			{
				"family": "Cascio",
				"given": "Wayne F."
			},
			{
				"family": "Krusell",
				"given": "Judith"
			}
		],
		"issued": {
			"date-parts": [
				[
					"1975"
				]
			]
		}
	},
	{
		"id": "deci1975a",
		"type": "book",
		"abstract": "As I begin to write this Preface, I feel a rush of excitement. I have now finished the book; my gestalt is coming into completion. Throughout the months that I have been writing this, I have, indeed, been intrinsically motivated. Now that it is finished I feel quite competent and self-determining (see Chapter 2). Whether or not those who read the book will perceive me that way is also a concern of mine (an extrinsic one), but it is a wholly separate issue from the intrinsic rewards I have been experiencing. This book presents a theoretical perspective. It reviews an enormous amount of research which establishes unequivocally that intrinsic motivation exists. Also considered herein are various approaches to the conceptualizing of intrinsic motivation. The book concentrates on the approach which has developed out of the work of Robert White (1959), namely, that intrinsically motivated behaviors are ones which a person engages in so that he may feel competent and self-determining in relation to his environment. The book then considers the development of intrinsic motiva­ tion, how behaviors are motivated intrinsically, how they relate to and how intrinsic motivation is extrinsically motivated behaviors, affected by extrinsic rewards and controls. It also considers how changes in intrinsic motivation relate to changes in attitudes, how people attribute motivation to each other, how the attribution process is motivated, and how the process of perceiving motivation (and other internal states) in oneself relates to perceiving them in others.",
		"collection-title": "Perspectives in Social Psychology",
		"ISBN": "978-1-4613-4448-3",
		"language": "en",
		"note": "DOI: 10.1007/978-1-4613-4446-9",
		"publisher": "Springer US",
		"source": "www.springer.com",
		"title": "Intrinsic Motivation",
		"URL": "https://www.springer.com/gp/book/9781461344483",
		"author": [
			{
				"family": "Deci",
				"given": "Edward"
			}
		],
		"accessed": {
			"date-parts": [
				[
					"2021",
					7,
					8
				]
			]
		},
		"issued": {
			"date-parts": [
				[
					"1975"
				]
			]
		}
	},
	{
		"id": "deci1999",
		"type": "article-journal",
		"abstract": "A meta-analysis of 128 studies examined the effects of extrinsic rewards on intrinsic motivation. As predicted, engagement-contingent, completion-contingent, and performance-contingent rewards significantly undermined free-choice intrinsic motivation (d = -0.40, -0.36, and -0.28, respectively), as did all rewards, all tangible rewards, and all expected rewards. Engagement-contingent and completion-contingent rewards also significantly undermined self-reported interest (d = -0.15, and -0.17), as did all tangible rewards and all expected rewards. Positive feedback enhanced both free-choice behavior (d = 0.33) and self-reported interest (d = 0.31). Tangible rewards tended to be more detrimental for children than college students, and verbal rewards tended to be less enhancing for children than college students. The authors review 4 previous meta-analyses of this literature and detail how this study's methods, analyses, and results differed from the previous ones.",
		"container-title": "Psychological Bulletin",
		"DOI": "10.1037/0033-2909.125.6.627",
		"ISSN": "0033-2909",
		"issue": "6",
		"journalAbbreviation": "Psychol Bull",
		"language": "eng",
		"note": "PMID: 10589297",
		"page": "627-668; discussion 692-700",
		"source": "PubMed",
		"title": "A meta-analytic review of experiments examining the effects of extrinsic rewards on intrinsic motivation",
		"volume": "125",
		"author": [
			{
				"family": "Deci",
				"given": "E. L."
			},
			{
				"family": "Koestner",
				"given": "R."
			},
			{
				"family": "Ryan",
				"given": "R. M."
			}
		],
		"issued": {
			"date-parts": [
				[
					"1999",
					11
				]
			]
		}
	},
	{
		"id": "deci1981",
		"type": "article-journal",
		"abstract": "Males and females solved interesting puzzles in the presence of a same-sex confederate who posed as a second subject doing the same activity. Half the subjects were instructed to compete against each other (i.e., to try to solve the puzzles faster than the other person) while half were simply instructed to work as quickly as they could so as to finish in the allotted time. The results showed a significant main effect in which competition decreased intrinsic motivation. 7his was particularly true for females.",
		"container-title": "Personality and Social Psychology Bulletin",
		"DOI": "10.1177/014616728171012",
		"ISSN": "0146-1672",
		"issue": "1",
		"journalAbbreviation": "Pers Soc Psychol Bull",
		"language": "en",
		"note": "publisher: SAGE Publications Inc",
		"page": "79-83",
		"source": "SAGE Journals",
		"title": "When Trying to Win: Competition and Intrinsic Motivation",
		"title-short": "When Trying to Win",
		"URL": "https://doi.org/10.1177/014616728171012",
		"volume": "7",
		"author": [
			{
				"family": "Deci",
				"given": "Edward L."
			},
			{
				"family": "Betley",
				"given": "Gregory"
			},
			{
				"family": "Kahle",
				"given": "James"
			},
			{
				"family": "Abrams",
				"given": "Linda"
			},
			{
				"family": "Porac",
				"given": "Joseph"
			}
		],
		"accessed": {
			"date-parts": [
				[
					"2021",
					7,
					8
				]
			]
		},
		"issued": {
			"date-parts": [
				[
					"1981",
					3,
					1
				]
			]
		}
	},
	{
		"id": "deci1972",
		"type": "article-journal",
		"abstract": "Recent studies have demonstrated that external rewards can affect intrinsic motivation to perform an activity. Money tends to decrease intrinsic motivation, whereas positive verbal reinforcements tend to increase intrinsic motivation. This paper presents evidence that negative feedback and threats of punishment also decrease intrinsic motivation. Subjects solved puzzles during the first part of the experimental session, after which observations relevant to their intrinsic motivation were made. Subjects in the negative feedback condition were given more difficult puzzles to solve than were the controls so that they railed more frequently than the control subjects. Those in the high failure condition showed less intrinsic motivation following their puzzle-solving session than did  control subjects. Subjects in the threat condition received an aversive buzzer each time they were unable to solve a puzzle, while the control subjects did not. Those subjects threatened with the buzzer showed less intrinsic motivation than control subjects. (Author/BW)",
		"language": "en",
		"source": "ERIC",
		"title": "Changes in Intrinsic Motivation as a Function of Negative Feedback and Threats",
		"URL": "https://eric.ed.gov/?id=ED063558",
		"author": [
			{
				"family": "Deci",
				"given": "Edward L."
			},
			{
				"family": "Cascio",
				"given": "Wayne F."
			}
		],
		"accessed": {
			"date-parts": [
				[
					"2021",
					7,
					8
				]
			]
		},
		"issued": {
			"date-parts": [
				[
					"1972",
					4
				]
			]
		}
	},
	{
		"id": "ryan2017",
		"type": "book",
		"abstract": "Self-determination theory (SDT) provides a framework for understanding the factors that promote motivation and healthy psychological and behavioral functioning. In this authoritative work, the codevelopers of the theory comprehensively examine SDT's conceptual underpinnings (including its six mini-theories), empirical evidence base, and practical applications across the lifespan. The volume synthesizes a vast body of research on how supporting--or thwarting--people's basic needs for competence, relatedness, and autonomy affects their development and well-being. Chapters cover implications for practice and policy in education, health care, psychotherapy, sport, and the workplace.",
		"event-place": "New York",
		"ISBN": "978-1-4625-2876-9",
		"language": "Anglais",
		"number-of-pages": "740",
		"publisher": "Guilford Press",
		"publisher-place": "New York",
		"source": "Amazon",
		"title": "Self-Determination Theory: Basic Psychological Needs in Motivation, Development, and Wellness",
		"title-short": "Self-Determination Theory",
		"author": [
			{
				"family": "Ryan",
				"given": "Richard M."
			},
			{
				"family": "Deci",
				"given": "Edward L."
			}
		],
		"issued": {
			"date-parts": [
				[
					"2017",
					3,
					3
				]
			]
		}
	},
	{
		"id": "deci1981a",
		"type": "article-journal",
		"abstract": "Developed a 32-item, paper-and-pencil measure with 4 subscales combined to provide an overall orientation. It is shown that the responses from 68 teachers had a good range and were internally consistent and temporally stable. Further, the measure was found to be externally valid in that teachers of Grades 4–6 who were more autonomy oriented on the measure were rated as such by their students. The children of the autonomy-oriented teachers were more intrinsically motivated and had higher self-esteem than children of more control-oriented teachers. (12 ref) (PsycINFO Database Record (c) 2016 APA, all rights reserved)",
		"container-title": "Journal of Educational Psychology",
		"DOI": "10.1037/0022-0663.73.5.642",
		"ISSN": "1939-2176(Electronic),0022-0663(Print)",
		"issue": "5",
		"note": "publisher-place: US\npublisher: American Psychological Association",
		"page": "642-650",
		"source": "APA PsycNET",
		"title": "An instrument to assess adults' orientations toward control versus autonomy with children: Reflections on intrinsic motivation and perceived competence",
		"title-short": "An instrument to assess adults' orientations toward control versus autonomy with children",
		"volume": "73",
		"author": [
			{
				"family": "Deci",
				"given": "Edward L."
			},
			{
				"family": "Schwartz",
				"given": "Allan J."
			},
			{
				"family": "Sheinman",
				"given": "Louise"
			},
			{
				"family": "Ryan",
				"given": "Richard M."
			}
		],
		"issued": {
			"date-parts": [
				[
					"1981"
				]
			]
		}
	},
	{
		"id": "dolan2015",
		"type": "article-journal",
		"abstract": "No behavior sits in a vacuum, and one behavior can greatly affect what happens next. We propose a conceptual frame within which a broad range of behavioral spillovers can be accounted for when applying behavioral science to policy challenges. We consider behaviors which take place sequentially and are linked, at a conscious or unconscious level, by some underlying motive. The first behavior leads to another behavior which can either work in the same direction as the first (promoting spillover), or push back against it (permitting or purging spillover). Looking through this conceptual lens at the existing evidence, we find pervasive evidence for all kinds of spillover effects across a variety of fields and domains. As a result, behavioral scientists, especially those seeking to inform policy, should try to capture all the ripples from one behavior to the next when a pebble of intervention is thrown in the pond, and not just at the immediate behavioral splash it makes.",
		"container-title": "Journal of Economic Psychology",
		"DOI": "10.1016/j.joep.2014.12.003",
		"ISSN": "0167-4870",
		"journalAbbreviation": "Journal of Economic Psychology",
		"language": "en",
		"page": "1-16",
		"source": "ScienceDirect",
		"title": "Like ripples on a pond: Behavioral spillovers and their implications for research and policy",
		"title-short": "Like ripples on a pond",
		"URL": "https://www.sciencedirect.com/science/article/pii/S0167487014001068",
		"volume": "47",
		"author": [
			{
				"family": "Dolan",
				"given": "Paul"
			},
			{
				"family": "Galizzi",
				"given": "Matteo M."
			}
		],
		"accessed": {
			"date-parts": [
				[
					"2021",
					7,
					8
				]
			]
		},
		"issued": {
			"date-parts": [
				[
					"2015",
					4,
					1
				]
			]
		}
	},
	{
		"id": "fave2011",
		"type": "book",
		"abstract": "Studies on well-being derive from two main perspectives: hedonism and eudaimonism. The former emphasizes the human search for pleasure and satisfaction while the latter focuses on fulfillment of one’s true nature that includes both self-actualization and commitment to socially shared goals. Operating under the eudaimonic approach, Psychological Selection and Optimal Experience Across Cultures uses recent advancements in positive psychology to explore the connections between personal well-being and social welfare. People grow and live in cultures that deeply influence their values, aspirations and behaviors. However, individuals in their turn play an active role in building their own goals, growth trajectories and social roles while at the same time influencing culture trends. This process, known as psychological selection, is related to the individual pursuit of well-being. People preferentially select and cultivate in their lives activities, interests and relationships associated with optimal experience—a state of deep engagement, concentration and enjoyment. Several cross-cultural studies confirm the positive and rewarding features of optimal experience, and based on these evidences this book highlights the interplay between individual and cultural growth trajectories, ultimately conveying the core message that educating people to enjoy engagement and involvement in activities that can be relevant and meaningful for social welfare is a premise to foster the harmonious development of human communities and the peaceful cohabitation of cultures. Interest in eudaimonia has grown rapidly, especially in the past five years. Given this book’s emphasis on the role of individuals as active agents in shaping their cultural environment and in promoting both their own development and cultural complexity, it fills a unique place in the increasing demand for studies in the field. Aimed at researchers and students in Psychology, Education, Health and the Social Sciences, it is useful for anyone interested in the promotion of individual happiness and well-being.",
		"collection-title": "Cross-Cultural Advancements in Positive Psychology",
		"ISBN": "978-90-481-9875-7",
		"language": "en",
		"note": "DOI: 10.1007/978-90-481-9876-4",
		"publisher": "Springer Netherlands",
		"source": "www.springer.com",
		"title": "Psychological Selection and Optimal Experience Across Cultures: Social Empowerment through Personal Growth",
		"title-short": "Psychological Selection and Optimal Experience Across Cultures",
		"URL": "https://www.springer.com/gp/book/9789048198757",
		"author": [
			{
				"family": "Fave",
				"given": "Antonella Delle"
			},
			{
				"family": "Massimini",
				"given": "Fausto"
			},
			{
				"family": "Bassi",
				"given": "Marta"
			}
		],
		"accessed": {
			"date-parts": [
				[
					"2021",
					7,
					8
				]
			]
		},
		"issued": {
			"date-parts": [
				[
					"2011"
				]
			]
		}
	},
	{
		"id": "enzle1993",
		"type": "article-journal",
		"abstract": "Alternative predictions about the influence of surveillance on intrinsic motivation were derived from cognitive evaluation and objective self-awareness theories. Adult Ss in Exp 1 were assigned to surveillance conditions that implicated either controlling or noncontrolling surveillant intentions or to no-surveillance conditions. A behavioral measure revealed greater intrinsic motivation in the noncontrolling intention and no-surveillance conditions than in the controlling intention conditions (ps < .05). Exp 2 examined why the lowest level of intrinsic motivation in Exp 1 occurred when the surveillant did not specify a reason for watching Ss. Results indicated that such surveillance was interpreted as reflecting both surveillant distrust of Ss and the intention to evaluate Ss' performance. Evidence from the 2 studies supported cognitive evaluation theory rather than objective self-awareness theory. (PsycINFO Database Record (c) 2016 APA, all rights reserved)",
		"container-title": "Journal of Personality and Social Psychology",
		"DOI": "10.1037/0022-3514.64.2.257",
		"ISSN": "1939-1315(Electronic),0022-3514(Print)",
		"issue": "2",
		"note": "publisher-place: US\npublisher: American Psychological Association",
		"page": "257-266",
		"source": "APA PsycNET",
		"title": "Surveillant intentions and intrinsic motivation",
		"volume": "64",
		"author": [
			{
				"family": "Enzle",
				"given": "Michael E."
			},
			{
				"family": "Anderson",
				"given": "Sharon C."
			}
		],
		"issued": {
			"date-parts": [
				[
					"1993"
				]
			]
		}
	},
	{
		"id": "fogg2003",
		"type": "book",
		"abstract": "Can computers change what you think and do? Can they motivate you to stop smoking, persuade you to buy insurance, or convince you to join the Army? Yes, they can, says Dr. B.J. Fogg, director of the Persuasive Technology Lab at Stanford University. Fogg has coined the phrase Captology(an acronym for computers as persuasive technologies) to capture the domain of research, design, and applications of persuasive computers.In this thought-provoking book, based on nine years of research in captology, Dr. Fogg reveals how Web sites, software applications, and mobile devices can be used to change people's attitudes and behavior. Technology designers, marketers, researchers, consumers--anyone who wants to leverage or simply understand the persuasive power of interactive technology--will appreciate the compelling insights and illuminating examples found inside. Persuasive technology can be controversial--and it should be. Who will wield this power of digital influence? And to what end? Now is the time to survey the issues and explore the principles of persuasive technology, and B.J. Fogg has written this book to be your guide.",
		"event-place": "Amsterdam ; Boston",
		"ISBN": "978-1-55860-643-2",
		"language": "Anglais",
		"number-of-pages": "312",
		"publisher": "Morgan Kaufmann Publishers In",
		"publisher-place": "Amsterdam ; Boston",
		"source": "Amazon",
		"title": "Persuasive Technology: Using Computers to Change What We Think and Do",
		"title-short": "Persuasive Technology",
		"author": [
			{
				"family": "Fogg",
				"given": "B. J."
			}
		],
		"issued": {
			"date-parts": [
				[
					"2003",
					1,
					4
				]
			]
		}
	},
	{
		"id": "zotero-2324",
		"type": "book",
		"abstract": "Qu'est-ce qui favorise le bon développement de l'être humain ? Les progrès réalisés ces dix dernières années dans la connaissance du cerveau affectif de l'enfant sont considérables et nous permettent de mieux répondre à cette question. Ces découvertes modifient complètement notre compréhension d...",
		"language": "fr",
		"source": "www.decitre.fr",
		"title": "Pour une enfance heureuse. Repenser l'éducation à la lumière des dernières découvertes sur le cerveau - Catherine Gueguen",
		"URL": "https://www.decitre.fr/livres/pour-une-enfance-heureuse-9782221140925.html",
		"accessed": {
			"date-parts": [
				[
					"2021",
					7,
					8
				]
			]
		}
	},
	{
		"id": "hatzfeld2003",
		"type": "book",
		"abstract": "L'ouvrage met en scène une bande de dix copains acteurs du génocide rwandais. L'auteur met en évidence le processus qui transforme les protagonistes en individus inhumains.",
		"event-place": "Paris, France",
		"ISBN": "978-2-02-061214-2",
		"language": "français",
		"note": "ISSN: 0336-5344",
		"number-of-pages": "312",
		"publisher": "Éditions du Seuil",
		"publisher-place": "Paris, France",
		"source": "Library Catalog - www.sudoc.abes.fr",
		"title": "Une saison de machettes: récits",
		"title-short": "Une saison de machettes",
		"author": [
			{
				"family": "Hatzfeld",
				"given": "Jean"
			}
		],
		"issued": {
			"date-parts": [
				[
					"2003"
				]
			]
		}
	},
	{
		"id": "koestner2001",
		"type": "article-journal",
		"abstract": "The present study sought to examine the influence of introjected beliefs on individuals’ vulnerability to counterattitudinal arguments. University students’ reasons for engaging in proenvironmental behaviors were assessed prior to their reading excerpts from a counterattitudinal article. The excerpts were written by a personally attractive or unattractive author and contained either weak or strong arguments against recycling. Our results show that individuals who were highly introjected about recycling (e.g., “I recycle because I would feel guilty if I didn't”) were influenced by the personal attractiveness of the source but not by the strength of the specific arguments. Specifically, a thought-listing procedure revealed that introjection was associated with generating more favorable thoughts and fewer counterarguments about the anti-recycling message when the author was personally attractive than when he was unattractive.",
		"container-title": "Journal of Applied Social Psychology",
		"DOI": "10.1111/j.1559-1816.2001.tb00190.x",
		"ISSN": "1559-1816",
		"issue": "12",
		"language": "en",
		"note": "_eprint: https://onlinelibrary.wiley.com/doi/pdf/10.1111/j.1559-1816.2001.tb00190.x",
		"page": "2545-2560",
		"source": "Wiley Online Library",
		"title": "On the Risks of Recycling Because of Guilt: An Examination of the Consequences of Introjection1",
		"title-short": "On the Risks of Recycling Because of Guilt",
		"URL": "https://onlinelibrary.wiley.com/doi/abs/10.1111/j.1559-1816.2001.tb00190.x",
		"volume": "31",
		"author": [
			{
				"family": "Koestner",
				"given": "Richard"
			},
			{
				"family": "Houlfort",
				"given": "Nathalie"
			},
			{
				"family": "Paquet",
				"given": "Stephanie"
			},
			{
				"family": "Knight",
				"given": "Christine"
			}
		],
		"accessed": {
			"date-parts": [
				[
					"2021",
					7,
					8
				]
			]
		},
		"issued": {
			"date-parts": [
				[
					"2001"
				]
			]
		}
	},
	{
		"id": "koestner1984",
		"type": "article-journal",
		"abstract": "The imposition of external constraints on an activity has frequently been shown to undermine intrinsic motivation. Given that limits must often be set upon peoples' activities, especially in parenting and education, the present study addressed the question of whether limits can be set without undermining intrinsic motivation for the activity being limited. Using cognitive evaluation theory, contrasting limit setting styles of either a controlling or informational nature, or no limits, were placed upon forty-four first- and second-grade children engaged in a painting activity. The intrinsic motivation, enjoyment, creativity, and quality of artistic production were expected to be decreased by controlling limits relative to informational and no-limits, which were not expected to differ from each other. The results provided substantial support for these predictions, suggesting that limits can be set without undermining intrinsic motivation if they are informational in nature. Support was also found for the consensual assessment of creativity method recently developed by Amabile (1982a). Results of the study are discussed along with the general relation between creativity and intrinsic motivation.",
		"container-title": "Journal of Personality",
		"DOI": "10.1111/j.1467-6494.1984.tb00879.x",
		"ISSN": "1467-6494",
		"issue": "3",
		"language": "en",
		"note": "_eprint: https://onlinelibrary.wiley.com/doi/pdf/10.1111/j.1467-6494.1984.tb00879.x",
		"page": "233-248",
		"source": "Wiley Online Library",
		"title": "Setting limits on children's behavior: The differential effects of controlling vs. informational styles on intrinsic motivation and creativity",
		"title-short": "Setting limits on children's behavior",
		"URL": "https://onlinelibrary.wiley.com/doi/abs/10.1111/j.1467-6494.1984.tb00879.x",
		"volume": "52",
		"author": [
			{
				"family": "Koestner",
				"given": "Richard"
			},
			{
				"family": "Ryan",
				"given": "Richard M."
			},
			{
				"family": "Bernieri",
				"given": "Frank"
			},
			{
				"family": "Holt",
				"given": "Kathleen"
			}
		],
		"accessed": {
			"date-parts": [
				[
					"2021",
					7,
					8
				]
			]
		},
		"issued": {
			"date-parts": [
				[
					"1984"
				]
			]
		}
	},
	{
		"id": "lepper1975",
		"type": "article-journal",
		"abstract": "80 preschool 4-5 yr olds participated in a novel activity in individual sessions. In the expected reward conditions, Ss expected to win a chance to play with highly attractive toys by engaging in the activity; in the unexpected reward conditions, Ss had no prior knowledge of this reward. Orthogonally, Ss in the surveillance conditions were told that their performance would be monitored via a TV camera; Ss in the nonsurveillance conditions were not monitored. 2 wks later, unobtrusive measures of the Ss' intrinsic interest in the activity were obtained in their classrooms. 2 significant main effects were obtained reproducing and expanding findings from earlier studies. Ss who had undertaken the activity expecting an extrinsic reward showed less subsequent interest in the activity than those who had not expected a reward, and Ss who had been placed under surveillance showed less subsequent interest than those not previously monitored. (19 ref) (PsycINFO Database Record (c) 2016 APA, all rights reserved)",
		"container-title": "Journal of Personality and Social Psychology",
		"DOI": "10.1037/h0076484",
		"ISSN": "1939-1315(Electronic),0022-3514(Print)",
		"issue": "3",
		"note": "publisher-place: US\npublisher: American Psychological Association",
		"page": "479-486",
		"source": "APA PsycNET",
		"title": "Turning play into work: Effects of adult surveillance and extrinsic rewards on children's intrinsic motivation",
		"title-short": "Turning play into work",
		"volume": "31",
		"author": [
			{
				"family": "Lepper",
				"given": "Mark R."
			},
			{
				"family": "Greene",
				"given": "David"
			}
		],
		"issued": {
			"date-parts": [
				[
					"1975"
				]
			]
		}
	},
	{
		"id": "lepper1973",
		"type": "article-journal",
		"abstract": "Journal of Personality and Social Psychology 28(1): 129-137",
		"container-title": "Journal of Personality and Social Psychology",
		"issue": "1",
		"language": "en",
		"page": "129-137",
		"source": "eurekamag.com",
		"title": "Undermining children's intrinsic interest with extrinsic reward: A test of the \"overjustification\" hypothesis",
		"title-short": "Undermining children's intrinsic interest with extrinsic reward",
		"URL": "https://eurekamag.com/research/061/339/061339736.php",
		"volume": "28",
		"author": [
			{
				"family": "Lepper",
				"given": "M. R."
			},
			{
				"family": "Greene",
				"given": "D."
			},
			{
				"family": "Nisbett",
				"given": "R. E."
			}
		],
		"accessed": {
			"date-parts": [
				[
					"2021",
					7,
					8
				]
			]
		},
		"issued": {
			"date-parts": [
				[
					"1973",
					12,
					21
				]
			]
		}
	},
	{
		"id": "moller2018",
		"type": "article-journal",
		"abstract": "Parental conditional regard (PCR) involves parents providing or withdrawing affection to motivate children to do what the parents want. Numerous studies have demonstrated that PCR has harmful consequences for children. The present research examines associations between PCR and children’s later relationships with young-adult peers. We conducted two cross-sectional studies (Study 1: 118 participants, 73 women; Study 2: 120 participants, 89 women). Study 3 involved collecting data from both members of a romantic heterosexual dyad (109 couples). Study 4 involved participants interacting with a neutral accomplice (73 participants, 56 women). We found support for several mediators of the association between PCR and young-adults' relationship quality: psychological need satisfaction (Studies 1 & 2), and projection of one’s own conditional regard onto a partner (Studies 3 & 4). Although longitudinal data are needed to establish causality, these findings suggest that exposure to PCR  is negatively associated with adult-children's peer relationship quality, and offers clues for disrupting this inimical association.",
		"container-title": "PsyArxiv",
		"note": "DOI: 10.31234/osf.io/924qn\ntype: article",
		"source": "OSF Preprints",
		"title": "Mediators of the associations between parents’ conditional regard and the quality of their adult-children’s peer relationships",
		"URL": "https://psyarxiv.com/924qn/",
		"author": [
			{
				"family": "Moller",
				"given": "Arlen"
			},
			{
				"family": "Roth",
				"given": "Guy"
			},
			{
				"family": "Niemiec",
				"given": "Christopher P."
			},
			{
				"family": "Kanat-Maymon",
				"given": "Yaniv"
			},
			{
				"family": "Deci",
				"given": "Edward L."
			}
		],
		"accessed": {
			"date-parts": [
				[
					"2021",
					7,
					8
				]
			]
		},
		"issued": {
			"date-parts": [
				[
					"2018",
					12,
					28
				]
			]
		}
	},
	{
		"id": "oliner1988",
		"type": "book",
		"event-place": "New York : London",
		"ISBN": "978-0-02-923830-1",
		"language": "Anglais",
		"number-of-pages": "512",
		"publisher": "Macmillan USA",
		"publisher-place": "New York : London",
		"source": "Amazon",
		"title": "The Altruistic Personality: Rescuers of Jews in Nazi Europe",
		"title-short": "The Altruistic Personality",
		"author": [
			{
				"family": "Oliner",
				"given": "Samuel P."
			},
			{
				"family": "Oliner",
				"given": "Pearl M."
			}
		],
		"issued": {
			"date-parts": [
				[
					"1988",
					11,
					1
				]
			]
		}
	},
	{
		"id": "oliner1992",
		"type": "book",
		"abstract": "All but buried for most of the twentieth century, the concept of altruism has re-emerged in this last quarter as a focus of intense scholarly inquiry and general public interest. In the wake of increased consciousness of the human potential for destructiveness, both scholars and the general public are seeking interventions which will not only inhibit the process, but may in fact chart a new creative path toward a global community. Largely initiated by a group of pioneering social psychologists, early questions on altruism centered on its motivation and development primarily in the context of contrived laboratory experiments. Although publications on the topic have been considerable over the last several years, and now represent the work of representatives from many disciplines of inquiry, this volume is distinguished from others in several ways.Embracing the Other emerged primarily as a response to recent research on an extraordinary manifestation of real-life altruism, namely to recent studies of non-Jewish rescuers of Jews during World War II. It is the work of a multi-disciplinary and international group of scholars, including philosophers, social psychologists, historians, sociologists, and educators, challenging several prevailing conceptual definitions and motivational sources of altruism. The book combines both new empirical and historical research as well as theoretical and philosophical approaches and includes a lengthy section addressing the practical implications of current thinking on altruism for society at large. The result is a multi-textured work, addressing critical issues in varied disciplines, while centered on shared themes.",
		"event-place": "New York",
		"ISBN": "978-0-8147-6175-5",
		"language": "Anglais",
		"number-of-pages": "474",
		"publisher": "New York University Press",
		"publisher-place": "New York",
		"source": "Amazon",
		"title": "Embracing the Other: Philosophical, Psychological, and Historical Perspectives on Altruism",
		"title-short": "Embracing the Other",
		"author": [
			{
				"family": "Oliner",
				"given": "Pearl"
			},
			{
				"family": "Oliner",
				"given": "Samuel P."
			},
			{
				"family": "Baron",
				"given": "Lawrence"
			},
			{
				"family": "Blum",
				"given": "Lawrence"
			}
		],
		"issued": {
			"date-parts": [
				[
					"1992"
				]
			]
		}
	},
	{
		"id": "oliner2002",
		"type": "book",
		"abstract": "Why, during the Holocaust, did some ordinary people risk their lives and the lives of their families to help others--even total strangers--while others stood passively by? Samuel Oliner, a Holocaust survivor who has interviewed more than 700 European rescuers and nonrescuers, provides some surprising answers in this compelling work.",
		"edition": "Reprint édition",
		"ISBN": "978-0-02-923829-5",
		"language": "Anglais",
		"number-of-pages": "448",
		"publisher": "Touchstone",
		"source": "Amazon",
		"title": "Altruistic Personality: Rescuers Of Jews In Nazi Europe",
		"title-short": "Altruistic Personality",
		"author": [
			{
				"family": "Oliner",
				"given": "Samuel P."
			}
		],
		"issued": {
			"date-parts": [
				[
					"2002"
				]
			]
		}
	},
	{
		"id": "pittman1980",
		"type": "article-journal",
		"abstract": "The experiment was designed to test Deci's (1975) informational/controlling analysis with verbal rewards and to assess the joint effects of type of verbal reward and level of surveillance. Compared to a no-reward control, the informational verbal reward enhanced interest in task engagement, but the controlling verbal reward did not. Regardless of type of reward, task interest decreased in linear fashion as surveillance was increased from low to medium to high.",
		"container-title": "Personality and Social Psychology Bulletin",
		"DOI": "10.1177/014616728062007",
		"ISSN": "0146-1672",
		"issue": "2",
		"journalAbbreviation": "Pers Soc Psychol Bull",
		"language": "en",
		"note": "publisher: SAGE Publications Inc",
		"page": "228-233",
		"source": "SAGE Journals",
		"title": "Informational versus Controlling Verbal Rewards",
		"URL": "https://doi.org/10.1177/014616728062007",
		"volume": "6",
		"author": [
			{
				"family": "Pittman",
				"given": "Thane S."
			},
			{
				"family": "Davey",
				"given": "Margaret E."
			},
			{
				"family": "Alafat",
				"given": "Kimberly A."
			},
			{
				"family": "Wetherill",
				"given": "Kathryn V."
			},
			{
				"family": "Kramer",
				"given": "Nancy A."
			}
		],
		"accessed": {
			"date-parts": [
				[
					"2021",
					7,
					8
				]
			]
		},
		"issued": {
			"date-parts": [
				[
					"1980",
					6,
					1
				]
			]
		}
	},
	{
		"id": "plant1985",
		"type": "article-journal",
		"abstract": "This study explored the relationships among dispositional self-consciousness, situationally induced-states of self-awareness, ego-involvement, and intrinsic motivation Cognitive evaluation theory, as applied to both the interpersonal and intrapersonal spheres, was used as the basis for making predictions about the effects of various types of self-focus Public self-consciousness, social anxiety, video surveillance and mirror manipulations of self-awareness, and induced ego-involvement were predicted and found to have negative effects on intrinsic motivation since all were hypothesized to involve controlling forms of regulation In contrast, dispositional private self-consciousness and a no-self-focus condition were both found to be unrelated to intrinsic motivation The relationship among these constructs and manipulations was discussed in the context of both Carver and Scheier's (1981) control theory and Deci and Ryan's (1985) motivation theory",
		"container-title": "Journal of Personality",
		"DOI": "10.1111/j.1467-6494.1985.tb00375.x",
		"ISSN": "1467-6494",
		"issue": "3",
		"language": "en",
		"note": "_eprint: https://onlinelibrary.wiley.com/doi/pdf/10.1111/j.1467-6494.1985.tb00375.x",
		"page": "435-449",
		"source": "Wiley Online Library",
		"title": "Intrinsic motivation and the effects of self-consciousness, self-awareness, and ego-involvement: An investigation of internally controlling styles",
		"title-short": "Intrinsic motivation and the effects of self-consciousness, self-awareness, and ego-involvement",
		"URL": "https://onlinelibrary.wiley.com/doi/abs/10.1111/j.1467-6494.1985.tb00375.x",
		"volume": "53",
		"author": [
			{
				"family": "Plant",
				"given": "Robert W."
			},
			{
				"family": "Ryan",
				"given": "Richard M."
			}
		],
		"accessed": {
			"date-parts": [
				[
					"2021",
					7,
					8
				]
			]
		},
		"issued": {
			"date-parts": [
				[
					"1985"
				]
			]
		}
	},
	{
		"id": "reader1982",
		"type": "article-journal",
		"abstract": "The present study investigated the role of self-perceptions and time deadlines on intrinsic motivation for a perceptual-motor game. Self-perceptions were manipulated by means of personality feedback emphasizing an intrinsic or extrinsic motivational orientation. Feedback was based ostensibly on group-administered tests in a first session. In a second session, subjects individually took part in a clinical judgment study (providing the \"cover story\"), received personality feedback, and then were invited to perform a game supposedly being pilot-tested for another researcher. Half of the subjects performed this task with an explicit time deadline. Following a second trial of the judgment task, subjects had a \"free play\" period of 8-min. During this time, subjects who initially tried the game with an explicit deadline evidenced less intrinsic interest than those who initially attempted the activity without time constraints. Although perceived as veridical by most subjects, the personality feedback had no effect on subsequent intrinsic motivation.",
		"container-title": "Personality and Social Psychology Bulletin",
		"DOI": "10.1177/0146167282084022",
		"ISSN": "0146-1672",
		"issue": "4",
		"journalAbbreviation": "Pers Soc Psychol Bull",
		"language": "en",
		"note": "publisher: SAGE Publications Inc",
		"page": "742-747",
		"source": "SAGE Journals",
		"title": "Deadlines, Self-Perceptions, and Intrinsic Motivation",
		"URL": "https://doi.org/10.1177/0146167282084022",
		"volume": "8",
		"author": [
			{
				"family": "Reader",
				"given": "Mark J."
			},
			{
				"family": "Dollinger",
				"given": "Stephen J."
			}
		],
		"accessed": {
			"date-parts": [
				[
					"2021",
					7,
					8
				]
			]
		},
		"issued": {
			"date-parts": [
				[
					"1982",
					12,
					1
				]
			]
		}
	},
	{
		"id": "rogers1984",
		"type": "book",
		"event-place": "Paris, France",
		"ISBN": "978-2-04-015729-6",
		"language": "français",
		"note": "ISSN: 0080-7648",
		"number-of-pages": "xviii+364",
		"publisher": "Dunod",
		"publisher-place": "Paris, France",
		"source": "Library Catalog - www.sudoc.abes.fr",
		"title": "Liberté pour apprendre ?",
		"author": [
			{
				"family": "Rogers",
				"given": "Carl Ransom"
			}
		],
		"issued": {
			"date-parts": [
				[
					"1984"
				]
			]
		}
	},
	{
		"id": "rogers1996",
		"type": "book",
		"event-place": "Paris, France",
		"ISBN": "978-2-10-003279-2",
		"language": "français",
		"number-of-pages": "xxii+286",
		"publisher": "Dunod",
		"publisher-place": "Paris, France",
		"source": "Library Catalog - www.sudoc.abes.fr",
		"title": "Le développement de la personne",
		"author": [
			{
				"family": "Rogers",
				"given": "Carl Ransom"
			},
			{
				"family": "Herbert",
				"given": "Eleonore Lily"
			},
			{
				"family": "Pagès",
				"given": "Max Préfacier"
			}
		],
		"issued": {
			"date-parts": [
				[
					"1996"
				]
			],
			"season": "DL"
		}
	},
	{
		"id": "deci1991",
		"type": "chapter",
		"abstract": "growth and continued development are central motivational forces in the system presented [by the authors]  also emphasized are the three primary psychological needs for competence, autonomy or self-determination, and relatedness to others  explicate the dimensions of internal versus external motivation / intrinsic motivation is experienced as truly self-determined (what one wants to do, with a sense of freedom of choice, not controlled even by internalized rules that one experiences as coercive) / the authors relate this dimension to issues of emotion, ego involvement (antithetical to intrinsic motivation, as are all forces experienced as controlling), and their view of self-concept / the processes of self are seen as motivational rather than cognitive (PsycINFO Database Record (c) 2016 APA, all rights reserved)",
		"collection-title": "Current theory and research in motivation, Vol. 38",
		"container-title": "Nebraska Symposium on Motivation, 1990:  Perspectives on motivation",
		"event-place": "Lincoln, NE, US",
		"ISBN": "978-0-8032-1693-8",
		"page": "237-288",
		"publisher": "University of Nebraska Press",
		"publisher-place": "Lincoln, NE, US",
		"source": "APA PsycNET",
		"title": "A motivational approach to self: Integration in personality",
		"title-short": "A motivational approach to self",
		"author": [
			{
				"family": "Deci",
				"given": "Edward L."
			},
			{
				"family": "Ryan",
				"given": "Richard M."
			}
		],
		"issued": {
			"date-parts": [
				[
					"1991"
				]
			]
		}
	},
	{
		"id": "ryan1993",
		"type": "article-journal",
		"abstract": "Two types of religious internalization are conceptualized that are presumed to vary in their relative autonomy. Introjection represents a partial internalization of beliefs and is characterized by self- and other-approval-based pressure. Identification represents adoption of beliefs as personal values and is characterized by greater volition. These 2 types of internalization are compared conceptually and empirically with existing measures of religious orientation and are used to predict varied functional outcomes. Results in 4 independent Christian samples show systematic construct validities and relations with mental health and self-related outcomes. Also, evangelical teenagers are shown to be higher on both introjection and identification than controls. Results are discussed both in terms of prior approaches to the psychology of religion and the significance of internalization for personality functioning. (PsycInfo Database Record (c) 2020 APA, all rights reserved)",
		"container-title": "Journal of Personality and Social Psychology",
		"DOI": "10.1037/0022-3514.65.3.586",
		"ISSN": "1939-1315(Electronic),0022-3514(Print)",
		"issue": "3",
		"note": "publisher-place: US\npublisher: American Psychological Association",
		"page": "586-596",
		"source": "APA PsycNET",
		"title": "Two types of religious internalization and their relations to religious orientations and mental health",
		"volume": "65",
		"author": [
			{
				"family": "Ryan",
				"given": "Richard M."
			},
			{
				"family": "Rigby",
				"given": "Scott"
			},
			{
				"family": "King",
				"given": "Kristi"
			}
		],
		"issued": {
			"date-parts": [
				[
					"1993"
				]
			]
		}
	},
	{
		"id": "ryan1986",
		"type": "article-journal",
		"abstract": "Two studies examined the significance of children's perceptions of their classroom environment along autonomy vs external control dimensions. Study 1 related a self-report measure of the perceived classroom climate—R. deCharms's (1976) origin climate questionnaire—to other self-related constructs. Among 140 4th–6th graders, the more \"origin\" the Ss perceived in their classroom, the higher their perceived self-worth, cognitive competence, internal control, and mastery motivation, and the lower their perceived control by unknown sources or powerful others. These relationships were primarily due to individual differences within classrooms rather than average classroom differences. Ss also wrote projective stories about an ambiguous classroom scene. Ratings of these stories indicated that originlike behavior in Ss' fantasy was associated with autonomy-oriented teachers and low aggression. Self-report and projective methods converged, particularly for Ss whose self-reported perceptions were extreme. In Study 2, with 578 Ss, relative contributions of classroom and individual difference effects were further examined. Results are discussed in terms of the importance of perceived autonomy and issues in assessment strategies. (27 ref) (PsycINFO Database Record (c) 2016 APA, all rights reserved)",
		"container-title": "Journal of Personality and Social Psychology",
		"DOI": "10.1037/0022-3514.50.3.550",
		"ISSN": "1939-1315(Electronic),0022-3514(Print)",
		"issue": "3",
		"note": "publisher-place: US\npublisher: American Psychological Association",
		"page": "550-558",
		"source": "APA PsycNET",
		"title": "Origins and pawns in the classroom: Self-report and projective assessments of individual differences in children's perceptions",
		"title-short": "Origins and pawns in the classroom",
		"volume": "50",
		"author": [
			{
				"family": "Ryan",
				"given": "Richard M."
			},
			{
				"family": "Grolnick",
				"given": "Wendy S."
			}
		],
		"issued": {
			"date-parts": [
				[
					"1986"
				]
			]
		}
	},
	{
		"id": "semelin1994",
		"type": "book",
		"event-place": "Paris",
		"ISBN": "978-2-13-046638-3",
		"language": "Français",
		"number-of-pages": "128",
		"publisher": "Presses Universitaires de France - PUF",
		"publisher-place": "Paris",
		"source": "Amazon",
		"title": "La Non-Violence",
		"author": [
			{
				"family": "Semelin",
				"given": "Jacques"
			},
			{
				"family": "Mellon",
				"given": "Christian"
			},
			{
				"family": "je?",
				"given": "Que",
				"non-dropping-particle": "sais-"
			}
		],
		"issued": {
			"date-parts": [
				[
					"1994"
				]
			]
		}
	},
	{
		"id": "semelin1983",
		"type": "book",
		"event-place": "Paris",
		"ISBN": "978-2-7082-2320-2",
		"language": "French",
		"note": "OCLC: 10324303",
		"publisher": "Editions ouvrières",
		"publisher-place": "Paris",
		"source": "Open WorldCat",
		"title": "Pour sortir de la violence",
		"author": [
			{
				"family": "Sémelin",
				"given": "Jacques"
			}
		],
		"issued": {
			"date-parts": [
				[
					"1983"
				]
			]
		}
	},
	{
		"id": "semelin2005",
		"type": "book",
		"abstract": "La couleur des idées Ce livre, en tout point exceptionnel, est le fruit de plusieurs années de travail dans le cadre d'un programme de recherche au CNRS. Il propose une approche résolument transdisciplinaire et comparative pour tenter de \" penser \" les processus de violence qui aboutissent aux massacres et aux génocides de l'époque moderne. Comment de tels crimes de masse sont-ils possibles ? Quelles manipulations du langage et des esprits interviennent pour préparer le \" passage à l'acte \", notamment en élaborant, préalablement, un imaginaire et une justification ? Comment s'enclenche et s'affole la mécanique du meurtre ? L'auteur fonde principalement son enquête sur plusieurs exemples : la Shoah, les nettoyages ethniques de l'ex-Yougoslavie, le génocide des Tutsis au Rwanda et encore les génocides arménien et cambodgien. Par l'ampleur de la documentation utilisée, la richesse des références bibliographiques, l'exigence permanente de l'analyse, ce livre est à la fois vertigineux et sans équivalent. On ne s'était sans doute jamais approché d'aussi près de cette énigme insondable, de ce \" trou noir \" devant lequel vacille l'entendement humain.",
		"event-place": "Paris",
		"ISBN": "978-2-02-047847-2",
		"language": "Français",
		"number-of-pages": "492",
		"publisher": "Le Seuil",
		"publisher-place": "Paris",
		"source": "Amazon",
		"title": "Purifier et Détruire. Usages politiques des massacres et génocides",
		"author": [
			{
				"family": "Semelin",
				"given": "Jacques"
			}
		],
		"issued": {
			"date-parts": [
				[
					"2005",
					10,
					7
				]
			]
		}
	},
	{
		"id": "semelin2013",
		"type": "book",
		"event-place": "Paris, France",
		"ISBN": "978-2-35204-236-5",
		"language": "français",
		"number-of-pages": "414",
		"publisher": "Les Arènes, impr. 2013",
		"publisher-place": "Paris, France",
		"source": "Library Catalog - www.sudoc.abes.fr",
		"title": "Sans armes face à Hitler: la résistance civile en Europe, 1939-1943",
		"title-short": "Sans armes face à Hitler",
		"author": [
			{
				"family": "Semelin",
				"given": "Jacques"
			}
		],
		"issued": {
			"date-parts": [
				[
					"2013"
				]
			],
			"season": "impr.  , cop. 2013"
		}
	},
	{
		"id": "staub2003",
		"type": "book",
		"abstract": "This book explores the roots of goodness and evil by gathering together the knowledge gained in a lifelong study of harmful or altruistic behavior. Ervin Staub has studied what leads children and adults to help others in need and how caring, helping, and altruism develop in children; bullying and youth violence and their prevention; the roots of genocide, mass killing, and other harmful behavior between groups of people; the prevention of violence; healing victimized groups and reconciliation between groups. He presents a broad panorama of the roots of violence and caring and how we create societies and a world that is caring, peaceful, and harmonious.",
		"event-place": "Cambridge, U.K. ; New York",
		"ISBN": "978-0-521-52880-1",
		"language": "English",
		"number-of-pages": "612",
		"publisher": "Cambridge University Press",
		"publisher-place": "Cambridge, U.K. ; New York",
		"source": "Amazon",
		"title": "The Psychology of Good and Evil: Why Children, Adults, and Groups Help and Harm Others",
		"title-short": "The Psychology of Good and Evil",
		"author": [
			{
				"family": "Staub",
				"given": "Ervin"
			}
		],
		"issued": {
			"date-parts": [
				[
					"2003",
					7,
					21
				]
			]
		}
	},
	{
		"id": "terestchenko2005",
		"type": "book",
		"event-place": "Paris, France",
		"ISBN": "978-2-7071-4612-0",
		"language": "français",
		"note": "ISSN: 1258-4029",
		"number-of-pages": "302",
		"publisher": "la Découverte : MAUSS",
		"publisher-place": "Paris, France",
		"source": "Library Catalog - www.sudoc.abes.fr",
		"title": "Un si fragile vernis d'humanité: banalité du mal, banalité du bien",
		"title-short": "Un si fragile vernis d'humanité",
		"author": [
			{
				"family": "Terestchenko",
				"given": "Michel"
			}
		],
		"issued": {
			"date-parts": [
				[
					"2005"
				]
			]
		}
	},
	{
		"id": "koestner1996",
		"type": "article-journal",
		"abstract": "Canadian voters' reasons for following political events were assessed prior to the 1992 Constitutional Referendum and the 1993 federal election. Results showed that reasons reflecting identification were endorsed more frequently than those reflecting introjection, and distinctive patterns of cognitions, emotions, and actions were associated with the 2 types of internalization. Identification was associated with actively seeking information about political events, possessing a complex set of political attitudes, and being more likely to actually vote. Introjection was associated with relying on the influence of important others, experiencing conflicted emotions about political outcomes, and vulnerability to persuasion. The study also provided evidence that identification and introjection toward politics are distinguishable from intrinsic motivation and amotivation. (PsycINFO Database Record (c) 2016 APA, all rights reserved)",
		"container-title": "Journal of Personality and Social Psychology",
		"DOI": "10.1037/0022-3514.70.5.1025",
		"ISSN": "1939-1315(Electronic),0022-3514(Print)",
		"issue": "5",
		"note": "publisher-place: US\npublisher: American Psychological Association",
		"page": "1025-1036",
		"source": "APA PsycNET",
		"title": "Identified and introjected forms of political internalization: Extending self-determination theory",
		"title-short": "Identified and introjected forms of political internalization",
		"volume": "70",
		"author": [
			{
				"family": "Koestner",
				"given": "Richard"
			},
			{
				"family": "Losier",
				"given": "Gaëtan F."
			},
			{
				"family": "Vallerand",
				"given": "Robert J."
			},
			{
				"family": "Carducci",
				"given": "Donald"
			}
		],
		"issued": {
			"date-parts": [
				[
					"1996"
				]
			]
		}
	},
	{
		"id": "weinstein2012",
		"type": "article-journal",
		"abstract": "When individuals grow up with autonomy-thwarting parents, they may be prevented from exploring internally endorsed values and identities and as a result shut out aspects of the self perceived to be unacceptable. Given the stigmatization of homosexuality, individuals perceiving low autonomy support from parents may be especially motivated to conceal same-sex sexual attraction, leading to defensive processes such as reaction formation. Four studies tested a model wherein perceived parental autonomy support is associated with lower discrepancies between self-reported sexual orientation and implicit sexual orientation (assessed with a reaction time task). These indices interacted to predict anti-gay responding indicative of reaction formation. Studies 2–4 showed that an implicit/explicit discrepancy was particularly pronounced in participants who experienced their fathers as both low in autonomy support and homophobic, though results were inconsistent for mothers. Findings of Study 3 suggested contingent self-esteem as a link between parenting styles and discrepancies in sexual orientation measures. (PsycINFO Database Record (c) 2016 APA, all rights reserved)",
		"container-title": "Journal of Personality and Social Psychology",
		"DOI": "10.1037/a0026854",
		"ISSN": "1939-1315(Electronic),0022-3514(Print)",
		"issue": "4",
		"note": "publisher-place: US\npublisher: American Psychological Association",
		"page": "815-832",
		"source": "APA PsycNET",
		"title": "Parental autonomy support and discrepancies between implicit and explicit sexual identities: Dynamics of self-acceptance and defense",
		"title-short": "Parental autonomy support and discrepancies between implicit and explicit sexual identities",
		"volume": "102",
		"author": [
			{
				"family": "Weinstein",
				"given": "Netta"
			},
			{
				"family": "Ryan",
				"given": "William S."
			},
			{
				"family": "DeHaan",
				"given": "Cody R."
			},
			{
				"family": "Przybylski",
				"given": "Andrew K."
			},
			{
				"family": "Legate",
				"given": "Nicole"
			},
			{
				"family": "Ryan",
				"given": "Richard M."
			}
		],
		"issued": {
			"date-parts": [
				[
					"2012"
				]
			]
		}
	}
]